…
merenja_df <- merenja %>% 
  dplyr::mutate(stanica = factor(rep(1:(dim(merenja)[1]/4), each = 4))) %>%  # Kreiranje novih kolona
  dplyr::group_by(stanica) %>% # grupisanje podataka prema nekoj promenljivoj
  dplyr::summarise(od = as.character(tacka[1]), # sumiranje podataka
                   do = as.character(tacka[2]),
                   dh = ((merenje[1]-merenje[2])+(merenje[4]-merenje[3]))/2,
                   duzina = sum(duzina)/2)

merenja_df
```

```
## # A tibble: 21 x 5
##    stanica od    do          dh duzina
##    <fct>   <chr> <chr>    <dbl>  <dbl>
##  1 1       B1    1     -0.974     51.2
##  2 2       1     2      0.00695   47.9
##  3 3       2     3     -0.121     49.5
##  4 4       3     4     -0.0358    50.8
##  5 5       4     B3     0.126     48.3
##  6 6       B3    1     -0.0357    49.7
##  7 7       1     2     -0.221     47.7
##  8 8       2     3     -0.125     48.2
##  9 9       3     4      0.0604    45.6
## 10 10      4     B4     0.0824    30.9
## # ... with 11 more rows
```
…
nivelman(niv_merenja = merenja, reperi = c("B1", "B3", "B4", "B5"))
```

```
## `summarise()` ungrouping output (override with `.groups` argument)
## `summarise()` ungrouping output (override with `.groups` argument)
```

```
## $tabela_1
## # A tibble: 21 x 4
##    od    do          dh duzina
##    <chr> <chr>    <dbl>  <dbl>
##  1 B1    1      0.974     51.2
##  2 1     2     -0.00695   47.9
##  3 2     3      0.121     49.5
##  4 3     4      0.0358    50.8
##  5 4     B3    -0.126     48.3
##  6 B3    1      0.0357    49.7
##  7 1     2      0.221     47.7
##  8 2     3      0.125     48.2
##  9 3     4     -0.0604    45.6
## 10 4     B4    -0.0824    30.9
## # ... with 11 more rows
## 
## $tabela_2
…
